…
## What is mean total number of steps taken per day?

```r
total_steps <- activity %>%
    #remove NA data
    drop_na(steps) %>% 
    #aggregate by date
    group_by(date) %>%  
    #calculate the total of steps per group
    summarise(mean_steps_day = sum(steps)) 
total_steps
```

```
## # A tibble: 53 x 2
##    date       mean_steps_day
##  * <date>              <dbl>
##  1 2012-10-02            126
##  2 2012-10-03          11352
##  3 2012-10-04          12116
##  4 2012-10-05          13294
##  5 2012-10-06          15420
##  6 2012-10-07          11015
##  7 2012-10-09          12811
##  8 2012-10-10           9900
##  9 2012-10-11          10304
## 10 2012-10-12          17382
## # ... with 43 more rows
```
…
#Make a histogram of the total number of steps taken each day and Calculate and report the mean and median total number of steps taken per day.

#aggregate by date
total_steps2 <- activity_fill %>% 
group_by(date) %>%  
#calculate the total of steps per group
summarise(mean_steps_day = sum(steps)) 
total_steps2
```

```
## # A tibble: 61 x 2
##    date       mean_steps_day
##  * <date>              <dbl>
##  1 2012-10-01              0
##  2 2012-10-02            126
##  3 2012-10-03          11352
##  4 2012-10-04          12116
##  5 2012-10-05          13294
##  6 2012-10-06          15420
##  7 2012-10-07          11015
##  8 2012-10-08              0
##  9 2012-10-09          12811
## 10 2012-10-10           9900
## # ... with 51 more rows
```
…
week_average <- week_activity %>%
  group_by(key,interval) %>% 
  summarize(average = mean(steps))
```

```
## `summarise()` has grouped output by 'key'. You can override using the `.groups` argument.
```

```r
week_average
```

```
## # A tibble: 576 x 3
## # Groups:   key [2]
##    key     interval average
##    <chr>      <dbl>   <dbl>
##  1 weekday        0  1.72  
##  2 weekday        5  0.340 
##  3 weekday       10  0.132 
##  4 weekday       15  0.151 
##  5 weekday       20  0.0755
##  6 weekday       25  2.09  
##  7 weekday       30  0.528 
##  8 weekday       35  0.868 
##  9 weekday       40  0     
## 10 weekday       45  1.36  
## # ... with 566 more rows
```
…
